{
  "id" : "urn:ngsi:NoiseLevelObserved:HOPac67b2cd449a",
  "type" : "NoiseLevelObserved",
  "LA1" : {
    "type" : "Number",
    "value" : 77.4000015
  },
  "LA10" : {
    "type" : "Number",
    "value" : 72.0625
  },
  "LA50" : {
    "type" : "Number",
    "value" : 69.5833358
  },
  "LA90" : {
    "type" : "Number",
    "value" : 68.7649536
  },
  "LA99" : {
    "type" : "Number",
    "value" : 58.2999992
  },
  "LAeq" : {
    "type" : "Number",
    "value" : 61.9445495
  },
  "LAmax" : {
    "type" : "Number",
    "value" : 84.0899963
  },
  "LAmin" : {
    "type" : "Number",
    "value" : 54.0299987
  },
  "TimeInstant" : {
    "type" : "DateTime",
    "value" : "2022-01-17T14:08:05.00Z"
  },
  "dataProvider" : {
    "type" : "Text",
    "value" : "www.hopu.eu"
  },
  "dateObserved" : {
    "type" : "Text",
    "value" : "2022-01-17T14:08:05.195Z/2022-01-17T14:13:05.195Z"
  },
  "dateObservedFrom" : {
    "type" : "DateTime",
    "value" : "2022-01-17T14:08:05.00Z"
  },
  "dateObservedTo" : {
    "type" : "DateTime",
    "value" : "2022-01-17T14:13:05.00Z"
  },
  "location" : {
    "type" : "geo:json",
    "value" : {
      "type" : "Point",
      "coordinates" : [ -1.2153559, 37.9688796 ]
    }
  },
  "name" : {
    "type" : "Text",
    "value" : "Plaza de la Constitucion"
  },
  "operationalStatus" : {
    "type" : "Text",
    "value" : "CONNECTED"
  },
  "period" : {
    "type" : "Number",
    "value" : 5
  },
  "sonometerClass" : {
    "type" : "Text",
    "value" : "2"
  },
  "source" : {
    "type" : "Text",
    "value" : "www.hopu.eu"
  },
  "state" : {
    "type" : "Text",
    "value" : "OK"
  },
  "dateModified" : {
    "type" : "DateTime",
    "value" : "2022-01-17T14:08:08.00Z"
  }
}
