{
  "id": "urn:ngsi:WeatherObserved:HOPac67b2cd42f6",
  "type": "WeatherObserved",
  "TimeInstant": {
    "type": "DateTime",
    "value": "2022-01-17T14:19:36.00Z",
    "metadata": {}
  },
  "UV": {
    "type": "Number",
    "value": 25.5,
    "metadata": {
      "dateObserved": {
        "type": "DateTime",
        "value": "2022-01-17T14:19:34.00Z"
      },
      "description": {
        "type": "Text",
        "value": "UV Index. Accuracy 5%"
      },
      "ranges": {
        "type": "Text",
        "value": "0 to 16"
      }
    }
  },
  "atmosphericPressure": {
    "type": "Number",
    "value": 1028.5821533,
    "metadata": {
      "dateObserved": {
        "type": "DateTime",
        "value": "2022-01-17T14:19:36.00Z"
      },
      "description": {
        "type": "Text",
        "value": "Barometric pressure weighted in mb or hPa. Accuracy 1,0 mb or hPa"
      },
      "ranges": {
        "type": "Text",
        "value": "540 to 1100 mb or hPa"
      },
      "unitCode": {
        "type": "Text",
        "value": "MBR"
      }
    }
  },
  "dailyEvapotranspiration": {
    "type": "Number",
    "value": 0,
    "metadata": {
      "dateObserved": {
        "type": "DateTime",
        "value": "2022-01-17T14:19:34.00Z"
      },
      "description": {
        "type": "Text",
        "value": "Average evapotranspiration weighted in millimetre, 1 day period. Accuracy 5%"
      },
      "ranges": {
        "type": "Text",
        "value": "0  to 832.1 mm"
      },
      "unitCode": {
        "type": "Text",
        "value": "MMT"
      }
    }
  },
  "dataProvider": {
    "type": "Text",
    "value": "www.hopu.eu",
    "metadata": {}
  },
  "dayEvapotranspiration": {
    "type": "Number",
    "value": 0,
    "metadata": {
      "dateObserved": {
        "type": "DateTime",
        "value": "2022-01-17T14:19:34.00Z"
      },
      "description": {
        "type": "Text",
        "value": "Today evapotranspiration weighted in millimetre. Accuracy 5%"
      },
      "ranges": {
        "type": "Text",
        "value": "0  to 832.1 mm"
      },
      "unitCode": {
        "type": "Text",
        "value": "MMT"
      }
    }
  },
  "dewPoint": {
    "type": "Number",
    "value": 3.8888888,
    "metadata": {
      "dateObserved": {
        "type": "DateTime",
        "value": "2022-01-17T14:19:34.00Z"
      },
      "description": {
        "type": "Text",
        "value": "Outside dew point vue weighted in celsius degry 1°C"
      },
      "ranges": {
        "type": "Text",
        "value": "–76° to +54°C"
      },
      "unitCode": {
        "type": "Text",
        "value": "CEL"
      }
    }
  },
  "forecastIcon": {
    "type": "Number",
    "value": 6,
    "metadata": {
      "dateObserved": {
        "type": "DateTime",
        "value": "2022-01-17T14:19:34.00Z"
      },
      "description": {
        "type": "Text",
        "value": "Number representing an icon that lets you know to expect sun, partly cloudy, clouds, rain, or snow."
      },
      "ranges": {
        "type": "Text",
        "value": "8,Mostly Clear|6,Partly Cloudy|2,Mostly Cloudy|3,Mostly Cloudy, Rain within 12 hours|18,Mostly Cloudy, Snow within 12 hours|19,Mostly Cloudy, Rain or Snow within 12 hours|7,PartlyCloudy, Rain within 12 hours|22,PartlyCloudy, Snow within 12 hours|23,PartlyCloudy, Rain or Snow within 12 hours"
      }
    }
  },
  "heatIndex": {
    "type": "Number",
    "value": 15,
    "metadata": {
      "dateObserved": {
        "type": "DateTime",
        "value": "2022-01-17T14:19:34.00Z"
      },
      "description": {
        "type": "Text",
        "value": "Outside heat index vue weighted in celsius degry 1,5°C"
      },
      "ranges": {
        "type": "Text",
        "value": "–40° to +74°C"
      },
      "unitCode": {
        "type": "Text",
        "value": "CEL"
      }
    }
  },
  "location": {
    "type": "geo:json",
    "value": {
      "type": "Point",
      "coordinates": [
        -1.220028,
        37.9682502
      ]
    },
    "metadata": {}
  },
  "monthEvapotranspiration": {
    "type": "Number",
    "value": 0,
    "metadata": {
      "dateObserved": {
        "type": "DateTime",
        "value": "2022-01-17T14:19:34.00Z"
      },
      "description": {
        "type": "Text",
        "value": "Month average evapotranspiration weighted in millimetre, 30 day period. Accuracy 5%"
      },
      "ranges": {
        "type": "Text",
        "value": "0 to 1999,9 mm"
      },
      "unitCode": {
        "type": "Text",
        "value": "MMT"
      }
    }
  },
  "name": {
    "type": "Text",
    "value": "Plaza de la Inmaculada",
    "metadata": {}
  },
  "operationalStatus": {
    "type": "Text",
    "value": "CONNECTED",
    "metadata": {
      "timestamp": {
        "type": "DateTime",
        "value": "2022-01-17T14:21:51.00Z"
      }
    }
  },
  "precipitation": {
    "type": "Number",
    "value": 0,
    "metadata": {
      "dateObserved": {
        "type": "DateTime",
        "value": "2022-01-17T14:19:35.00Z"
      },
      "description": {
        "type": "Text",
        "value": "Rainfall weighted in millimetre. Accuracy 4%"
      },
      "ranges": {
        "type": "Text",
        "value": "0 to 6553 l/m^2"
      },
      "unitCode": {
        "type": "Text",
        "value": "MMT"
      }
    }
  },
  "precipitation15MinAvg": {
    "type": "Number",
    "value": 0,
    "metadata": {
      "dateObserved": {
        "type": "DateTime",
        "value": "2022-01-17T14:19:34.00Z"
      },
      "description": {
        "type": "Text",
        "value": "Average rainfall weighted in millimetre, 15 minutes period. Accuracy 4%"
      },
      "ranges": {
        "type": "Text",
        "value": "0 to 999.7 l/m^2"
      },
      "unitCode": {
        "type": "Text",
        "value": "MMT"
      }
    }
  },
  "precipitationDaily": {
    "type": "Number",
    "value": 0,
    "metadata": {
      "dateObserved": {
        "type": "DateTime",
        "value": "2022-01-17T14:19:35.00Z"
      },
      "description": {
        "type": "Text",
        "value": "Average rainfall weighted in millimetre, period daily. Accuracy 4%"
      },
      "ranges": {
        "type": "Text",
        "value": "0 to 999.8 l/m^2"
      },
      "unitCode": {
        "type": "Text",
        "value": "MMT"
      }
    }
  },
  "precipitationDay": {
    "type": "Number",
    "value": 0,
    "metadata": {
      "dateObserved": {
        "type": "DateTime",
        "value": "2022-01-17T14:19:35.00Z"
      },
      "description": {
        "type": "Text",
        "value": "Today rainfall weighted in millimetre. Accuracy 4%"
      },
      "ranges": {
        "type": "Text",
        "value": "0 to 999.7 l/m^2"
      },
      "unitCode": {
        "type": "Text",
        "value": "MMT"
      }
    }
  },
  "precipitationLast24Hour": {
    "type": "Number",
    "value": 0,
    "metadata": {
      "dateObserved": {
        "type": "DateTime",
        "value": "2022-01-17T14:19:34.00Z"
      },
      "description": {
        "type": "Text",
        "value": "Average rainfall weighted in millimetre, 24 hours period. Accuracy 4%"
      },
      "ranges": {
        "type": "Text",
        "value": "0 to 6553 l/m^2"
      },
      "unitCode": {
        "type": "Text",
        "value": "MMT"
      }
    }
  },
  "precipitationLastHour": {
    "type": "Number",
    "value": 0,
    "metadata": {
      "dateObserved": {
        "type": "DateTime",
        "value": "2022-01-17T14:19:34.00Z"
      },
      "description": {
        "type": "Text",
        "value": "Average rainfall weighted in millimetre, 1 hour period. Accuracy 4%"
      },
      "ranges": {
        "type": "Text",
        "value": "0 to 999.7 l/m^2"
      },
      "unitCode": {
        "type": "Text",
        "value": "MMT"
      }
    }
  },
  "precipitationMonth": {
    "type": "Number",
    "value": 4,
    "metadata": {
      "dateObserved": {
        "type": "DateTime",
        "value": "2022-01-17T14:19:35.00Z"
      },
      "description": {
        "type": "Text",
        "value": "Current month rainfall weighted in millimetre. Accuracy 4%"
      },
      "ranges": {
        "type": "Text",
        "value": "0 to 6553 l/m^2"
      },
      "unitCode": {
        "type": "Text",
        "value": "MMT"
      }
    }
  },
  "precipitationStorm": {
    "type": "Number",
    "value": 0,
    "metadata": {
      "dateObserved": {
        "type": "DateTime",
        "value": "2022-01-17T14:19:35.00Z"
      },
      "description": {
        "type": "Text",
        "value": "Current storm rainfall weighted in millimetre. Accuracy 4%"
      },
      "ranges": {
        "type": "Text",
        "value": "0 to 999.8 l/m^2"
      },
      "unitCode": {
        "type": "Text",
        "value": "MMT"
      }
    }
  },
  "precipitationYear": {
    "type": "Number",
    "value": 4,
    "metadata": {
      "dateObserved": {
        "type": "DateTime",
        "value": "2022-01-17T14:19:34.00Z"
      },
      "description": {
        "type": "Text",
        "value": "Current year rainfall weighted in millimetre. Accuracy 4%"
      },
      "ranges": {
        "type": "Text",
        "value": "0 to 6553 l/m^2"
      },
      "unitCode": {
        "type": "Text",
        "value": "MMT"
      }
    }
  },
  "refDevice": {
    "type": "Relationship",
    "value": "urn:ngsi:Device:HOPac67b2cd42f6",
    "metadata": {}
  },
  "relativeHumidity": {
    "type": "Number",
    "value": 42,
    "metadata": {
      "dateObserved": {
        "type": "DateTime",
        "value": "2022-01-17T14:19:35.00Z"
      },
      "description": {
        "type": "Text",
        "value": "Outside humidity weighted in %. Accuracy 2%"
      },
      "ranges": {
        "type": "Text",
        "value": "1% to 100%"
      },
      "unit": {
        "type": "Text",
        "value": "%"
      }
    }
  },
  "solarRadiation": {
    "type": "Number",
    "value": 32767,
    "metadata": {
      "dateObserved": {
        "type": "DateTime",
        "value": "2022-01-17T14:19:34.00Z"
      },
      "description": {
        "type": "Text",
        "value": "Solar radiation weighted in watt per square metre. Accuracy 5%"
      },
      "ranges": {
        "type": "Text",
        "value": "0 to 1800 W/m2"
      },
      "unitCode": {
        "type": "Text",
        "value": "D54"
      }
    }
  },
  "source": {
    "type": "Text",
    "value": "www.hopu.eu",
    "metadata": {}
  },
  "state": {
    "type": "Text",
    "value": "OK",
    "metadata": {
      "description": {
        "type": "Text",
        "value": "Status of integration"
      },
      "ranges": {
        "type": "Text",
        "value": "OK|MAINTENANCE|DATA_RECOVERY"
      }
    }
  },
  "temperature": {
    "type": "Number",
    "value": 16.7222213,
    "metadata": {
      "dateObserved": {
        "type": "DateTime",
        "value": "2022-01-17T14:19:35.00Z"
      },
      "description": {
        "type": "Text",
        "value": "Outside temperature weighted in °C. Accuracy 0,3°C"
      },
      "ranges": {
        "type": "Text",
        "value": "-40 to +70°C"
      },
      "unitCode": {
        "type": "Text",
        "value": "CEL"
      }
    }
  },
  "thswIndex": {
    "type": "Number",
    "value": 123.8888854,
    "metadata": {
      "dateObserved": {
        "type": "DateTime",
        "value": "2022-01-17T14:19:34.00Z"
      },
      "description": {
        "type": "Text",
        "value": "Temp/Hum/Solar/Wind Index weighted in celsius degrees. Accuracy 2°C"
      },
      "ranges": {
        "type": "Text",
        "value": "–68° to +74°C"
      },
      "unitCode": {
        "type": "Text",
        "value": "CEL"
      }
    }
  },
  "windChill": {
    "type": "Number",
    "value": 16.666666,
    "metadata": {
      "dateObserved": {
        "type": "DateTime",
        "value": "2022-01-17T14:19:34.00Z"
      },
      "description": {
        "type": "Text",
        "value": "Outside wind chill vue weighted in celsius degry 1°C"
      },
      "ranges": {
        "type": "Text",
        "value": "–79° to +57°C"
      },
      "unitCode": {
        "type": "Text",
        "value": "CEL"
      }
    }
  },
  "windDirection": {
    "type": "Number",
    "value": 94,
    "metadata": {
      "dateObserved": {
        "type": "DateTime",
        "value": "2022-01-17T14:19:35.00Z"
      },
      "description": {
        "type": "Text",
        "value": "Analogical wind direction weighted in degrees. Accuracy 3°"
      },
      "ranges": {
        "type": "Text",
        "value": "0° to 360°"
      },
      "unit": {
        "type": "Text",
        "value": "°"
      }
    }
  },
  "windDirection10MinAvg": {
    "type": "Number",
    "value": 67,
    "metadata": {
      "dateObserved": {
        "type": "DateTime",
        "value": "2022-01-17T14:19:35.00Z"
      },
      "description": {
        "type": "Text",
        "value": "Average analogical wind direction weighted in degrees, 10 min period. Accuracy 3°"
      },
      "ranges": {
        "type": "Text",
        "value": "0° to 360°"
      },
      "unit": {
        "type": "Text",
        "value": "°"
      }
    }
  },
  "windSpeed": {
    "type": "Number",
    "value": 0,
    "metadata": {
      "dateObserved": {
        "type": "DateTime",
        "value": "2022-01-17T14:19:35.00Z"
      },
      "description": {
        "type": "Text",
        "value": "Wind direction weighted in km/h. Accuracy 5%"
      },
      "ranges": {
        "type": "Text",
        "value": "0 to 320 km/h"
      },
      "unitCode": {
        "type": "Text",
        "value": "KMH"
      }
    }
  },
  "windSpeed10MinAvg": {
    "type": "Number",
    "value": 0,
    "metadata": {
      "dateObserved": {
        "type": "DateTime",
        "value": "2022-01-17T14:19:35.00Z"
      },
      "description": {
        "type": "Text",
        "value": "Average wind direction weighted in km/h, 10 minutes period. Accuracy 5%"
      },
      "ranges": {
        "type": "Text",
        "value": "0 to 320 km/h"
      },
      "unitCode": {
        "type": "Text",
        "value": "KMH"
      }
    }
  },
  "windSpeed10MinGust": {
    "type": "Number",
    "value": 1.6093399,
    "metadata": {
      "dateObserved": {
        "type": "DateTime",
        "value": "2022-01-17T14:19:35.00Z"
      },
      "description": {
        "type": "Text",
        "value": "Average wind direction gust weighted in km/h, 10 minutes period. Accuracy 5%"
      },
      "ranges": {
        "type": "Text",
        "value": "0 to 320 km/h"
      },
      "unitCode": {
        "type": "Text",
        "value": "KMH"
      }
    }
  },
  "yearEvapotranspiration": {
    "type": "Number",
    "value": 0,
    "metadata": {
      "dateObserved": {
        "type": "DateTime",
        "value": "2022-01-17T14:19:34.00Z"
      },
      "description": {
        "type": "Text",
        "value": "Year average evapotranspiration weighted in millimetre, 1 year period. Accuracy 5%"
      },
      "ranges": {
        "type": "Text",
        "value": "0  to 1999,9 mm"
      },
      "unitCode": {
        "type": "Text",
        "value": "MMT"
      }
    }
  },
  "dateModified": {
    "type": "DateTime",
    "value": "2022-01-17T14:21:51.00Z",
    "metadata": {}
  }
}