{
  "id": "urn:ngsi:WaterQualityObserved:HOP00d7eb941ace",
  "type": "WaterQualityObserved",
  "TimeInstant": {
    "type": "DateTime",
    "value": "2023-03-09T11:30:44.00Z"
  },
  "O2": {
    "type": "Number",
    "value": 0
  },
  "bod": {
    "type": "Number",
    "value": 0
  },
  "conductivity": {
    "type": "Number",
    "value": 0
  },
  "location": {
    "type": "geo:json",
    "value": {
      "type": "Point",
      "coordinates": [
        -1.271313,
        38.077034
      ]
    }
  },
  "name": {
    "type": "Text",
    "value": "Libelium Murcia - Calidad del Agua"
  },
  "operationalStatus": {
    "type": "Text",
    "value": "CONNECTED"
  },
  "orp": {
    "type": "Number",
    "value": 0
  },
  "pH": {
    "type": "Number",
    "value": 0
  },
  "salinity": {
    "type": "Number",
    "value": 0
  },
  "saturatedOxygen": {
    "type": "Number",
    "value": 0
  },
  "state": {
    "type": "Text",
    "value": "OK"
  },
  "tds": {
    "type": "Number",
    "value": 0
  },
  "temperature": {
    "type": "Number",
    "value": 0
  },
  "turbidity": {
    "type": "Number",
    "value": 0
  },
  "waterQualityAttrs": {
    "type": "List",
    "value": [
      "O2",
      "bod",
      "conductivity",
      "orp",
      "pH",
      "salinity",
      "saturatedOxygen",
      "tds",
      "temperature",
      "turbidity"
    ]
  },
  "dateModified": {
    "type": "DateTime",
    "value": "2023-04-20T06:44:15.00Z"
  }
}
