{
  "id": "urn:ParkingSpot:Ceuti_PK_1",
  "type": "ParkingSpot",
  "TimeInstant": {
    "type": "DateTime",
    "value": "2022-01-17T11:06:18.00Z"
  },
  "areaServed": {
    "type": "Text",
    "value": "redparking"
  },
  "batteryStatus": {
    "type": "Text",
    "value": "good"
  },
  "category": {
    "type": "Text",
    "value": "onStreet"
  },
  "dataProvider": {
    "type": "Text",
    "value": "www.libelium.com"
  },
  "location": {
    "type": "geo:json",
    "value": {
      "type": "Point",
      "coordinates" : [ -1.2153559, 37.9688796 ]
    }
  },
  "municipality": {
    "type": "Text",
    "value": "ulea"
  },
  "name": {
    "type": "Text",
    "value": "Libelium Murcia - Parking 1"
  },
  "operationalStatus": {
    "type": "Text",
    "value": "CONNECTED"
  },
  "source": {
    "type": "Text",
    "value": "wwww.libelium.com"
  },
  "state": {
    "type": "Text",
    "value": "OK"
  },
  "status": {
    "type": "Text",
    "value": "free"
  },
  "dateModified": {
    "type": "DateTime",
    "value": "2022-01-17T11:06:18.00Z"
  }
}